Grid size 1000
1415 iterations completed in 3.45292 s
Grid size 2000
2824 iterations completed in 7.31447 s
Grid size 3000
3167 iterations completed in 9.58712 s
Grid size 4000
3691 iterations completed in 15.0103 s
Grid size 5000
4173 iterations completed in 23.6138 s
