Grid size 1000
1415 iterations completed in 0.765154 s
Grid size 2000
2824 iterations completed in 2.85038 s
Grid size 3000
3167 iterations completed in 5.97065 s
Grid size 4000
3691 iterations completed in 11.6273 s
Grid size 5000
4173 iterations completed in 19.7486 s
