Grid size 1000
1415 iterations completed in 3.8316 s
Grid size 2000
2824 iterations completed in 18.9806 s
Grid size 3000
3167 iterations completed in 43.5466 s
Grid size 4000
3691 iterations completed in 86.9701 s
Grid size 5000
4173 iterations completed in 150.755 s
